c3=a1+b2
d4=b2+c3
e5=c3+d4
f6=d4+e5
g7=e5+f6
h8=f6+g7
i9=g7+h8
j10=h8+i9
k11=i9+j10
l12=j10+k11
m13=k11+l12
n14=l12+m13
o15=m13+n14
p16=n14+o15
q17=o15+p16
r18=p16+q17
s19=q17+r18
t20=r18+s19
u21=s19+t20
v22=t20+u21
w23=u21+v22
x24=v22+w23
y25=w23+x24
z26=x24+y25
a1=10+30
b2=a1+30
